            6>countries>
            23>world>
            29>goodbye>
            32>Czechoslovakia>
            35>border>
            38>separate>
            43>election>
            48>slovak>
            52>disappear>
            57>Bratislava Slovakia>
            65>flag>
            66>independence>
            71>union>
            81>split>
            86>death>
            87>nation>
            88>birth>
            96>Germany>
            97>Second World War>
            105>Slovenska Republika>
            110>army trucks>
            117>division>
            149>Prague>
            162>common state>
            196>leader>
            203>economic>
            220>celebrate>
            224>enthusiasm>
            233>peaceful>