              40>British Columbia>
              136>Mighty Peace River>
              142>Panama Canal>
              771>Rosemarie Blair Smith>
              668>Bessie John>
              534>Alexander Powell>
              493>Nehemiah Atkinson>
              358>Edward G Carroll>
              274>Norman Wells>
              210>Malcolm Mcdonald>
              5>Pearl Harbor>
              643>White River>
              640>Yukon Alaska>
              323>Pennsylvania>
              322>Richard Trenton>
              276>Ribbon>
              268>US>
              263>Canada>
              283>Whitehorse>
              84>Island>
              58>Europe>
              60>Germany>
              106>North America>
              7>Alaska>
              10>Washington>
              9>California>
              635>Beaver Creek>
              206>Corps of Engineers>
              267>US Army>
              184>Canadian Yukon>
              315>Dawson Creek>
              92>University Of Victoria>
              47>Edmonton>
              305>Black Soldiers>
              568>University Of Alaska>
              574>Oral History>
              138>Alaska Highway>
              578>Thank You>
              643>First Nation>
              880>Disease>