            3>Spengler Cup>
            7>1923 Oxford University>
            11>Team Canada>
            18>Sweden>
            32>Mike Richard>
            40>Mark Astly>
            52>Fabian Joseph>
            74>Canadian Juniors>
            84>Wayne Gretzky>
            91>Leafs>
            100>Mario Lemieux>
            102>Grant Furer>
            165>Winnipeg>
            174>Canadians>
            207>7 Top moments in canadian sport>
            232>Sylvie Flechette>
            242>Silken Laumann>
            257>Calgary>
            267>Kerrin Lee-Gartner>