            24>organ transplant rejection>
            30>availability>
            33>patient need>
            40>new international group>
            42>society for organ sharing>
            48>immediate support>
            51>organ donors>
            60>the surgical technology>
            70>pope support>
            71>major achievement>
            72>significant obstacles>
            80>fewer available organs>
            95>success rate>
            125>education programs>
            130>25 percent>
            132>heart patients>
            138>the donor education program>
            142>doubling>
            154>sensitive issue>
            158>negative consequences>
            171>essential rethinking>